ISO-10303-21;
HEADER;
FILE_DESCRIPTION(('FreeCAD Model'),'2;1');
FILE_NAME(
'/home/josejacomeb/Documents/marcadorecuavolley/Schematic/3D 
Models/SPST Button.step','2022-01-11T02:27:41',('kicad StepUp'),(
    'ksu MCAD'),'Open CASCADE STEP processor 7.3','FreeCAD','Unknown');
FILE_SCHEMA(('AUTOMOTIVE_DESIGN { 1 0 10303 214 1 1 1 1 }'));
ENDSEC;
DATA;
#1 = APPLICATION_PROTOCOL_DEFINITION('international standard',
  'automotive_design',2000,#2);
#2 = APPLICATION_CONTEXT(
  'core data for automotive mechanical design processes');
#3 = SHAPE_DEFINITION_REPRESENTATION(#4,#10);
#4 = PRODUCT_DEFINITION_SHAPE('','',#5);
#5 = PRODUCT_DEFINITION('design','',#6,#9);
#6 = PRODUCT_DEFINITION_FORMATION('','',#7);
#7 = PRODUCT('SPST_Button','SPST_Button','',(#8));
#8 = PRODUCT_CONTEXT('',#2,'mechanical');
#9 = PRODUCT_DEFINITION_CONTEXT('part definition',#2,'design');
#10 = ADVANCED_BREP_SHAPE_REPRESENTATION('',(#11,#15),#612);
#11 = AXIS2_PLACEMENT_3D('',#12,#13,#14);
#12 = CARTESIAN_POINT('',(0.,0.,0.));
#13 = DIRECTION('',(0.,0.,1.));
#14 = DIRECTION('',(1.,0.,-0.));
#15 = MANIFOLD_SOLID_BREP('',#16);
#16 = CLOSED_SHELL('',(#17,#50,#83,#170,#179,#210,#234,#258,#275,#300,
    #325,#350,#375,#409,#418,#451,#484,#517,#542,#567,#576,#585,#594,
    #603));
#17 = ADVANCED_FACE('',(#18),#45,.T.);
#18 = FACE_BOUND('',#19,.F.);
#19 = EDGE_LOOP('',(#20,#30,#37,#38));
#20 = ORIENTED_EDGE('',*,*,#21,.T.);
#21 = EDGE_CURVE('',#22,#24,#26,.T.);
#22 = VERTEX_POINT('',#23);
#23 = CARTESIAN_POINT('',(2.75,-2.25,3.5));
#24 = VERTEX_POINT('',#25);
#25 = CARTESIAN_POINT('',(2.75,-2.25,3.50001));
#26 = LINE('',#27,#28);
#27 = CARTESIAN_POINT('',(2.75,-2.25,3.5));
#28 = VECTOR('',#29,1.);
#29 = DIRECTION('',(0.,0.,1.));
#30 = ORIENTED_EDGE('',*,*,#31,.T.);
#31 = EDGE_CURVE('',#24,#24,#32,.T.);
#32 = CIRCLE('',#33,0.5);
#33 = AXIS2_PLACEMENT_3D('',#34,#35,#36);
#34 = CARTESIAN_POINT('',(2.25,-2.25,3.50001));
#35 = DIRECTION('',(0.,0.,1.));
#36 = DIRECTION('',(1.,0.,0.));
#37 = ORIENTED_EDGE('',*,*,#21,.F.);
#38 = ORIENTED_EDGE('',*,*,#39,.F.);
#39 = EDGE_CURVE('',#22,#22,#40,.T.);
#40 = CIRCLE('',#41,0.5);
#41 = AXIS2_PLACEMENT_3D('',#42,#43,#44);
#42 = CARTESIAN_POINT('',(2.25,-2.25,3.5));
#43 = DIRECTION('',(0.,0.,1.));
#44 = DIRECTION('',(1.,0.,0.));
#45 = CYLINDRICAL_SURFACE('',#46,0.5);
#46 = AXIS2_PLACEMENT_3D('',#47,#48,#49);
#47 = CARTESIAN_POINT('',(2.25,-2.25,3.5));
#48 = DIRECTION('',(-0.,-0.,-1.));
#49 = DIRECTION('',(1.,0.,0.));
#50 = ADVANCED_FACE('',(#51),#71,.T.);
#51 = FACE_BOUND('',#52,.T.);
#52 = EDGE_LOOP('',(#53,#62,#63,#64));
#53 = ORIENTED_EDGE('',*,*,#54,.F.);
#54 = EDGE_CURVE('',#24,#55,#57,.T.);
#55 = VERTEX_POINT('',#56);
#56 = CARTESIAN_POINT('',(2.25001,-2.25,4.));
#57 = CIRCLE('',#58,0.49999);
#58 = AXIS2_PLACEMENT_3D('',#59,#60,#61);
#59 = CARTESIAN_POINT('',(2.25001,-2.25,3.50001));
#60 = DIRECTION('',(0.,-1.,0.));
#61 = DIRECTION('',(1.,0.,0.));
#62 = ORIENTED_EDGE('',*,*,#31,.T.);
#63 = ORIENTED_EDGE('',*,*,#54,.T.);
#64 = ORIENTED_EDGE('',*,*,#65,.F.);
#65 = EDGE_CURVE('',#55,#55,#66,.T.);
#66 = CIRCLE('',#67,1.000000000001E-05);
#67 = AXIS2_PLACEMENT_3D('',#68,#69,#70);
#68 = CARTESIAN_POINT('',(2.25,-2.25,4.));
#69 = DIRECTION('',(0.,0.,1.));
#70 = DIRECTION('',(1.,0.,0.));
#71 = SURFACE_OF_REVOLUTION('',#72,#80);
#72 = B_SPLINE_CURVE_WITH_KNOTS('',6,(#73,#74,#75,#76,#77,#78,#79),
  .UNSPECIFIED.,.F.,.F.,(7,7),(0.,1.570796326795),
  .PIECEWISE_BEZIER_KNOTS.);
#73 = CARTESIAN_POINT('',(2.75,-2.25,3.50001));
#74 = CARTESIAN_POINT('',(2.75,-2.25,3.630907075906));
#75 = CARTESIAN_POINT('',(2.708886979267,-2.25,3.761793014588));
#76 = CARTESIAN_POINT('',(2.626597542919,-2.25,3.876597542919));
#77 = CARTESIAN_POINT('',(2.511793014588,-2.25,3.958886979267));
#78 = CARTESIAN_POINT('',(2.380907075906,-2.25,4.));
#79 = CARTESIAN_POINT('',(2.25001,-2.25,4.));
#80 = AXIS1_PLACEMENT('',#81,#82);
#81 = CARTESIAN_POINT('',(2.25,-2.25,3.50001));
#82 = DIRECTION('',(0.,0.,1.));
#83 = ADVANCED_FACE('',(#84,#118,#121,#132,#143,#154),#165,.F.);
#84 = FACE_BOUND('',#85,.F.);
#85 = EDGE_LOOP('',(#86,#96,#104,#112));
#86 = ORIENTED_EDGE('',*,*,#87,.T.);
#87 = EDGE_CURVE('',#88,#90,#92,.T.);
#88 = VERTEX_POINT('',#89);
#89 = CARTESIAN_POINT('',(-3.1,3.1,3.5));
#90 = VERTEX_POINT('',#91);
#91 = CARTESIAN_POINT('',(3.1,3.1,3.5));
#92 = LINE('',#93,#94);
#93 = CARTESIAN_POINT('',(-3.1,3.1,3.5));
#94 = VECTOR('',#95,1.);
#95 = DIRECTION('',(1.,0.,0.));
#96 = ORIENTED_EDGE('',*,*,#97,.T.);
#97 = EDGE_CURVE('',#90,#98,#100,.T.);
#98 = VERTEX_POINT('',#99);
#99 = CARTESIAN_POINT('',(3.1,-3.1,3.5));
#100 = LINE('',#101,#102);
#101 = CARTESIAN_POINT('',(3.1,3.1,3.5));
#102 = VECTOR('',#103,1.);
#103 = DIRECTION('',(0.,-1.,0.));
#104 = ORIENTED_EDGE('',*,*,#105,.T.);
#105 = EDGE_CURVE('',#98,#106,#108,.T.);
#106 = VERTEX_POINT('',#107);
#107 = CARTESIAN_POINT('',(-3.1,-3.1,3.5));
#108 = LINE('',#109,#110);
#109 = CARTESIAN_POINT('',(3.1,-3.1,3.5));
#110 = VECTOR('',#111,1.);
#111 = DIRECTION('',(-1.,0.,0.));
#112 = ORIENTED_EDGE('',*,*,#113,.T.);
#113 = EDGE_CURVE('',#106,#88,#114,.T.);
#114 = LINE('',#115,#116);
#115 = CARTESIAN_POINT('',(-3.1,-3.1,3.5));
#116 = VECTOR('',#117,1.);
#117 = DIRECTION('',(0.,1.,0.));
#118 = FACE_BOUND('',#119,.F.);
#119 = EDGE_LOOP('',(#120));
#120 = ORIENTED_EDGE('',*,*,#39,.T.);
#121 = FACE_BOUND('',#122,.F.);
#122 = EDGE_LOOP('',(#123));
#123 = ORIENTED_EDGE('',*,*,#124,.T.);
#124 = EDGE_CURVE('',#125,#125,#127,.T.);
#125 = VERTEX_POINT('',#126);
#126 = CARTESIAN_POINT('',(1.75,0.,3.5));
#127 = CIRCLE('',#128,1.75);
#128 = AXIS2_PLACEMENT_3D('',#129,#130,#131);
#129 = CARTESIAN_POINT('',(0.,0.,3.5));
#130 = DIRECTION('',(0.,0.,1.));
#131 = DIRECTION('',(1.,0.,0.));
#132 = FACE_BOUND('',#133,.F.);
#133 = EDGE_LOOP('',(#134));
#134 = ORIENTED_EDGE('',*,*,#135,.T.);
#135 = EDGE_CURVE('',#136,#136,#138,.T.);
#136 = VERTEX_POINT('',#137);
#137 = CARTESIAN_POINT('',(2.75,2.25,3.5));
#138 = CIRCLE('',#139,0.5);
#139 = AXIS2_PLACEMENT_3D('',#140,#141,#142);
#140 = CARTESIAN_POINT('',(2.25,2.25,3.5));
#141 = DIRECTION('',(0.,0.,1.));
#142 = DIRECTION('',(1.,0.,0.));
#143 = FACE_BOUND('',#144,.F.);
#144 = EDGE_LOOP('',(#145));
#145 = ORIENTED_EDGE('',*,*,#146,.T.);
#146 = EDGE_CURVE('',#147,#147,#149,.T.);
#147 = VERTEX_POINT('',#148);
#148 = CARTESIAN_POINT('',(-1.75,2.25,3.5));
#149 = CIRCLE('',#150,0.5);
#150 = AXIS2_PLACEMENT_3D('',#151,#152,#153);
#151 = CARTESIAN_POINT('',(-2.25,2.25,3.5));
#152 = DIRECTION('',(0.,0.,1.));
#153 = DIRECTION('',(1.,0.,0.));
#154 = FACE_BOUND('',#155,.F.);
#155 = EDGE_LOOP('',(#156));
#156 = ORIENTED_EDGE('',*,*,#157,.T.);
#157 = EDGE_CURVE('',#158,#158,#160,.T.);
#158 = VERTEX_POINT('',#159);
#159 = CARTESIAN_POINT('',(-1.75,-2.25,3.5));
#160 = CIRCLE('',#161,0.5);
#161 = AXIS2_PLACEMENT_3D('',#162,#163,#164);
#162 = CARTESIAN_POINT('',(-2.25,-2.25,3.5));
#163 = DIRECTION('',(0.,0.,1.));
#164 = DIRECTION('',(1.,0.,0.));
#165 = PLANE('',#166);
#166 = AXIS2_PLACEMENT_3D('',#167,#168,#169);
#167 = CARTESIAN_POINT('',(-1.4E-16,3.6E-16,3.5));
#168 = DIRECTION('',(-0.,-0.,-1.));
#169 = DIRECTION('',(-1.,0.,0.));
#170 = ADVANCED_FACE('',(#171),#174,.T.);
#171 = FACE_BOUND('',#172,.T.);
#172 = EDGE_LOOP('',(#173));
#173 = ORIENTED_EDGE('',*,*,#65,.T.);
#174 = PLANE('',#175);
#175 = AXIS2_PLACEMENT_3D('',#176,#177,#178);
#176 = CARTESIAN_POINT('',(2.25,-2.25,4.));
#177 = DIRECTION('',(0.,0.,1.));
#178 = DIRECTION('',(1.,0.,0.));
#179 = ADVANCED_FACE('',(#180),#205,.T.);
#180 = FACE_BOUND('',#181,.T.);
#181 = EDGE_LOOP('',(#182,#190,#191,#199));
#182 = ORIENTED_EDGE('',*,*,#183,.T.);
#183 = EDGE_CURVE('',#184,#88,#186,.T.);
#184 = VERTEX_POINT('',#185);
#185 = CARTESIAN_POINT('',(-3.1,3.1,0.));
#186 = LINE('',#187,#188);
#187 = CARTESIAN_POINT('',(-3.1,3.1,0.));
#188 = VECTOR('',#189,1.);
#189 = DIRECTION('',(0.,0.,1.));
#190 = ORIENTED_EDGE('',*,*,#87,.T.);
#191 = ORIENTED_EDGE('',*,*,#192,.F.);
#192 = EDGE_CURVE('',#193,#90,#195,.T.);
#193 = VERTEX_POINT('',#194);
#194 = CARTESIAN_POINT('',(3.1,3.1,0.));
#195 = LINE('',#196,#197);
#196 = CARTESIAN_POINT('',(3.1,3.1,0.));
#197 = VECTOR('',#198,1.);
#198 = DIRECTION('',(0.,0.,1.));
#199 = ORIENTED_EDGE('',*,*,#200,.F.);
#200 = EDGE_CURVE('',#184,#193,#201,.T.);
#201 = LINE('',#202,#203);
#202 = CARTESIAN_POINT('',(-3.1,3.1,0.));
#203 = VECTOR('',#204,1.);
#204 = DIRECTION('',(1.,0.,0.));
#205 = PLANE('',#206);
#206 = AXIS2_PLACEMENT_3D('',#207,#208,#209);
#207 = CARTESIAN_POINT('',(-3.1,3.1,0.));
#208 = DIRECTION('',(0.,1.,0.));
#209 = DIRECTION('',(1.,0.,0.));
#210 = ADVANCED_FACE('',(#211),#229,.T.);
#211 = FACE_BOUND('',#212,.T.);
#212 = EDGE_LOOP('',(#213,#221,#222,#223));
#213 = ORIENTED_EDGE('',*,*,#214,.T.);
#214 = EDGE_CURVE('',#215,#106,#217,.T.);
#215 = VERTEX_POINT('',#216);
#216 = CARTESIAN_POINT('',(-3.1,-3.1,0.));
#217 = LINE('',#218,#219);
#218 = CARTESIAN_POINT('',(-3.1,-3.1,0.));
#219 = VECTOR('',#220,1.);
#220 = DIRECTION('',(0.,0.,1.));
#221 = ORIENTED_EDGE('',*,*,#113,.T.);
#222 = ORIENTED_EDGE('',*,*,#183,.F.);
#223 = ORIENTED_EDGE('',*,*,#224,.F.);
#224 = EDGE_CURVE('',#215,#184,#225,.T.);
#225 = LINE('',#226,#227);
#226 = CARTESIAN_POINT('',(-3.1,-3.1,0.));
#227 = VECTOR('',#228,1.);
#228 = DIRECTION('',(0.,1.,0.));
#229 = PLANE('',#230);
#230 = AXIS2_PLACEMENT_3D('',#231,#232,#233);
#231 = CARTESIAN_POINT('',(-3.1,-3.1,0.));
#232 = DIRECTION('',(-1.,0.,0.));
#233 = DIRECTION('',(0.,1.,0.));
#234 = ADVANCED_FACE('',(#235),#253,.T.);
#235 = FACE_BOUND('',#236,.T.);
#236 = EDGE_LOOP('',(#237,#238,#239,#247));
#237 = ORIENTED_EDGE('',*,*,#192,.T.);
#238 = ORIENTED_EDGE('',*,*,#97,.T.);
#239 = ORIENTED_EDGE('',*,*,#240,.F.);
#240 = EDGE_CURVE('',#241,#98,#243,.T.);
#241 = VERTEX_POINT('',#242);
#242 = CARTESIAN_POINT('',(3.1,-3.1,0.));
#243 = LINE('',#244,#245);
#244 = CARTESIAN_POINT('',(3.1,-3.1,0.));
#245 = VECTOR('',#246,1.);
#246 = DIRECTION('',(0.,0.,1.));
#247 = ORIENTED_EDGE('',*,*,#248,.F.);
#248 = EDGE_CURVE('',#193,#241,#249,.T.);
#249 = LINE('',#250,#251);
#250 = CARTESIAN_POINT('',(3.1,3.1,0.));
#251 = VECTOR('',#252,1.);
#252 = DIRECTION('',(0.,-1.,0.));
#253 = PLANE('',#254);
#254 = AXIS2_PLACEMENT_3D('',#255,#256,#257);
#255 = CARTESIAN_POINT('',(3.1,3.1,0.));
#256 = DIRECTION('',(1.,0.,0.));
#257 = DIRECTION('',(0.,-1.,0.));
#258 = ADVANCED_FACE('',(#259),#270,.T.);
#259 = FACE_BOUND('',#260,.T.);
#260 = EDGE_LOOP('',(#261,#262,#263,#264));
#261 = ORIENTED_EDGE('',*,*,#240,.T.);
#262 = ORIENTED_EDGE('',*,*,#105,.T.);
#263 = ORIENTED_EDGE('',*,*,#214,.F.);
#264 = ORIENTED_EDGE('',*,*,#265,.F.);
#265 = EDGE_CURVE('',#241,#215,#266,.T.);
#266 = LINE('',#267,#268);
#267 = CARTESIAN_POINT('',(3.1,-3.1,0.));
#268 = VECTOR('',#269,1.);
#269 = DIRECTION('',(-1.,0.,0.));
#270 = PLANE('',#271);
#271 = AXIS2_PLACEMENT_3D('',#272,#273,#274);
#272 = CARTESIAN_POINT('',(3.1,-3.1,0.));
#273 = DIRECTION('',(0.,-1.,0.));
#274 = DIRECTION('',(-1.,0.,0.));
#275 = ADVANCED_FACE('',(#276),#295,.T.);
#276 = FACE_BOUND('',#277,.F.);
#277 = EDGE_LOOP('',(#278,#286,#293,#294));
#278 = ORIENTED_EDGE('',*,*,#279,.T.);
#279 = EDGE_CURVE('',#125,#280,#282,.T.);
#280 = VERTEX_POINT('',#281);
#281 = CARTESIAN_POINT('',(1.75,0.,5.));
#282 = LINE('',#283,#284);
#283 = CARTESIAN_POINT('',(1.75,0.,3.5));
#284 = VECTOR('',#285,1.);
#285 = DIRECTION('',(0.,0.,1.));
#286 = ORIENTED_EDGE('',*,*,#287,.T.);
#287 = EDGE_CURVE('',#280,#280,#288,.T.);
#288 = CIRCLE('',#289,1.75);
#289 = AXIS2_PLACEMENT_3D('',#290,#291,#292);
#290 = CARTESIAN_POINT('',(0.,0.,5.));
#291 = DIRECTION('',(0.,0.,1.));
#292 = DIRECTION('',(1.,0.,0.));
#293 = ORIENTED_EDGE('',*,*,#279,.F.);
#294 = ORIENTED_EDGE('',*,*,#124,.F.);
#295 = CYLINDRICAL_SURFACE('',#296,1.75);
#296 = AXIS2_PLACEMENT_3D('',#297,#298,#299);
#297 = CARTESIAN_POINT('',(0.,0.,3.5));
#298 = DIRECTION('',(-0.,-0.,-1.));
#299 = DIRECTION('',(1.,0.,0.));
#300 = ADVANCED_FACE('',(#301),#320,.T.);
#301 = FACE_BOUND('',#302,.F.);
#302 = EDGE_LOOP('',(#303,#311,#318,#319));
#303 = ORIENTED_EDGE('',*,*,#304,.T.);
#304 = EDGE_CURVE('',#136,#305,#307,.T.);
#305 = VERTEX_POINT('',#306);
#306 = CARTESIAN_POINT('',(2.75,2.25,3.50001));
#307 = LINE('',#308,#309);
#308 = CARTESIAN_POINT('',(2.75,2.25,3.5));
#309 = VECTOR('',#310,1.);
#310 = DIRECTION('',(0.,0.,1.));
#311 = ORIENTED_EDGE('',*,*,#312,.T.);
#312 = EDGE_CURVE('',#305,#305,#313,.T.);
#313 = CIRCLE('',#314,0.5);
#314 = AXIS2_PLACEMENT_3D('',#315,#316,#317);
#315 = CARTESIAN_POINT('',(2.25,2.25,3.50001));
#316 = DIRECTION('',(0.,0.,1.));
#317 = DIRECTION('',(1.,0.,0.));
#318 = ORIENTED_EDGE('',*,*,#304,.F.);
#319 = ORIENTED_EDGE('',*,*,#135,.F.);
#320 = CYLINDRICAL_SURFACE('',#321,0.5);
#321 = AXIS2_PLACEMENT_3D('',#322,#323,#324);
#322 = CARTESIAN_POINT('',(2.25,2.25,3.5));
#323 = DIRECTION('',(-0.,-0.,-1.));
#324 = DIRECTION('',(1.,0.,0.));
#325 = ADVANCED_FACE('',(#326),#345,.T.);
#326 = FACE_BOUND('',#327,.F.);
#327 = EDGE_LOOP('',(#328,#336,#343,#344));
#328 = ORIENTED_EDGE('',*,*,#329,.T.);
#329 = EDGE_CURVE('',#147,#330,#332,.T.);
#330 = VERTEX_POINT('',#331);
#331 = CARTESIAN_POINT('',(-1.75,2.25,3.50001));
#332 = LINE('',#333,#334);
#333 = CARTESIAN_POINT('',(-1.75,2.25,3.5));
#334 = VECTOR('',#335,1.);
#335 = DIRECTION('',(0.,0.,1.));
#336 = ORIENTED_EDGE('',*,*,#337,.T.);
#337 = EDGE_CURVE('',#330,#330,#338,.T.);
#338 = CIRCLE('',#339,0.5);
#339 = AXIS2_PLACEMENT_3D('',#340,#341,#342);
#340 = CARTESIAN_POINT('',(-2.25,2.25,3.50001));
#341 = DIRECTION('',(0.,0.,1.));
#342 = DIRECTION('',(1.,0.,0.));
#343 = ORIENTED_EDGE('',*,*,#329,.F.);
#344 = ORIENTED_EDGE('',*,*,#146,.F.);
#345 = CYLINDRICAL_SURFACE('',#346,0.5);
#346 = AXIS2_PLACEMENT_3D('',#347,#348,#349);
#347 = CARTESIAN_POINT('',(-2.25,2.25,3.5));
#348 = DIRECTION('',(-0.,-0.,-1.));
#349 = DIRECTION('',(1.,0.,0.));
#350 = ADVANCED_FACE('',(#351),#370,.T.);
#351 = FACE_BOUND('',#352,.F.);
#352 = EDGE_LOOP('',(#353,#361,#368,#369));
#353 = ORIENTED_EDGE('',*,*,#354,.T.);
#354 = EDGE_CURVE('',#158,#355,#357,.T.);
#355 = VERTEX_POINT('',#356);
#356 = CARTESIAN_POINT('',(-1.75,-2.25,3.50001));
#357 = LINE('',#358,#359);
#358 = CARTESIAN_POINT('',(-1.75,-2.25,3.5));
#359 = VECTOR('',#360,1.);
#360 = DIRECTION('',(0.,0.,1.));
#361 = ORIENTED_EDGE('',*,*,#362,.T.);
#362 = EDGE_CURVE('',#355,#355,#363,.T.);
#363 = CIRCLE('',#364,0.5);
#364 = AXIS2_PLACEMENT_3D('',#365,#366,#367);
#365 = CARTESIAN_POINT('',(-2.25,-2.25,3.50001));
#366 = DIRECTION('',(1.64346021921E-30,1.840675445516E-30,1.));
#367 = DIRECTION('',(1.,-1.840638632007E-30,-1.64346021921E-30));
#368 = ORIENTED_EDGE('',*,*,#354,.F.);
#369 = ORIENTED_EDGE('',*,*,#157,.F.);
#370 = CYLINDRICAL_SURFACE('',#371,0.5);
#371 = AXIS2_PLACEMENT_3D('',#372,#373,#374);
#372 = CARTESIAN_POINT('',(-2.25,-2.25,3.5));
#373 = DIRECTION('',(-0.,-0.,-1.));
#374 = DIRECTION('',(1.,0.,0.));
#375 = ADVANCED_FACE('',(#376,#382,#393),#404,.T.);
#376 = FACE_BOUND('',#377,.T.);
#377 = EDGE_LOOP('',(#378,#379,#380,#381));
#378 = ORIENTED_EDGE('',*,*,#200,.T.);
#379 = ORIENTED_EDGE('',*,*,#248,.T.);
#380 = ORIENTED_EDGE('',*,*,#265,.T.);
#381 = ORIENTED_EDGE('',*,*,#224,.T.);
#382 = FACE_BOUND('',#383,.T.);
#383 = EDGE_LOOP('',(#384));
#384 = ORIENTED_EDGE('',*,*,#385,.F.);
#385 = EDGE_CURVE('',#386,#386,#388,.T.);
#386 = VERTEX_POINT('',#387);
#387 = CARTESIAN_POINT('',(0.5,2.5,0.));
#388 = CIRCLE('',#389,0.5);
#389 = AXIS2_PLACEMENT_3D('',#390,#391,#392);
#390 = CARTESIAN_POINT('',(0.,2.5,0.));
#391 = DIRECTION('',(0.,0.,-1.));
#392 = DIRECTION('',(1.,0.,0.));
#393 = FACE_BOUND('',#394,.T.);
#394 = EDGE_LOOP('',(#395));
#395 = ORIENTED_EDGE('',*,*,#396,.F.);
#396 = EDGE_CURVE('',#397,#397,#399,.T.);
#397 = VERTEX_POINT('',#398);
#398 = CARTESIAN_POINT('',(0.5,-2.5,0.));
#399 = CIRCLE('',#400,0.5);
#400 = AXIS2_PLACEMENT_3D('',#401,#402,#403);
#401 = CARTESIAN_POINT('',(0.,-2.5,0.));
#402 = DIRECTION('',(0.,0.,-1.));
#403 = DIRECTION('',(1.,0.,0.));
#404 = PLANE('',#405);
#405 = AXIS2_PLACEMENT_3D('',#406,#407,#408);
#406 = CARTESIAN_POINT('',(-1.4E-16,3.6E-16,0.));
#407 = DIRECTION('',(-0.,-0.,-1.));
#408 = DIRECTION('',(-1.,0.,0.));
#409 = ADVANCED_FACE('',(#410),#413,.T.);
#410 = FACE_BOUND('',#411,.T.);
#411 = EDGE_LOOP('',(#412));
#412 = ORIENTED_EDGE('',*,*,#287,.T.);
#413 = PLANE('',#414);
#414 = AXIS2_PLACEMENT_3D('',#415,#416,#417);
#415 = CARTESIAN_POINT('',(-4.883714759069E-17,1.239108604125E-16,5.));
#416 = DIRECTION('',(1.073280143158E-32,2.670757293878E-32,1.));
#417 = DIRECTION('',(0.,1.,-2.670757293878E-32));
#418 = ADVANCED_FACE('',(#419),#439,.T.);
#419 = FACE_BOUND('',#420,.T.);
#420 = EDGE_LOOP('',(#421,#430,#431,#432));
#421 = ORIENTED_EDGE('',*,*,#422,.F.);
#422 = EDGE_CURVE('',#305,#423,#425,.T.);
#423 = VERTEX_POINT('',#424);
#424 = CARTESIAN_POINT('',(2.25001,2.25,4.));
#425 = CIRCLE('',#426,0.49999);
#426 = AXIS2_PLACEMENT_3D('',#427,#428,#429);
#427 = CARTESIAN_POINT('',(2.25001,2.25,3.50001));
#428 = DIRECTION('',(0.,-1.,0.));
#429 = DIRECTION('',(1.,0.,0.));
#430 = ORIENTED_EDGE('',*,*,#312,.T.);
#431 = ORIENTED_EDGE('',*,*,#422,.T.);
#432 = ORIENTED_EDGE('',*,*,#433,.F.);
#433 = EDGE_CURVE('',#423,#423,#434,.T.);
#434 = CIRCLE('',#435,1.000000000001E-05);
#435 = AXIS2_PLACEMENT_3D('',#436,#437,#438);
#436 = CARTESIAN_POINT('',(2.25,2.25,4.));
#437 = DIRECTION('',(0.,0.,1.));
#438 = DIRECTION('',(1.,0.,0.));
#439 = SURFACE_OF_REVOLUTION('',#440,#448);
#440 = B_SPLINE_CURVE_WITH_KNOTS('',6,(#441,#442,#443,#444,#445,#446,
    #447),.UNSPECIFIED.,.F.,.F.,(7,7),(0.,1.570796326795),
  .PIECEWISE_BEZIER_KNOTS.);
#441 = CARTESIAN_POINT('',(2.75,2.25,3.50001));
#442 = CARTESIAN_POINT('',(2.75,2.25,3.630907075906));
#443 = CARTESIAN_POINT('',(2.708886979267,2.25,3.761793014588));
#444 = CARTESIAN_POINT('',(2.626597542919,2.25,3.876597542919));
#445 = CARTESIAN_POINT('',(2.511793014588,2.25,3.958886979267));
#446 = CARTESIAN_POINT('',(2.380907075906,2.25,4.));
#447 = CARTESIAN_POINT('',(2.25001,2.25,4.));
#448 = AXIS1_PLACEMENT('',#449,#450);
#449 = CARTESIAN_POINT('',(2.25,2.25,3.50001));
#450 = DIRECTION('',(0.,0.,1.));
#451 = ADVANCED_FACE('',(#452),#472,.T.);
#452 = FACE_BOUND('',#453,.T.);
#453 = EDGE_LOOP('',(#454,#463,#464,#465));
#454 = ORIENTED_EDGE('',*,*,#455,.F.);
#455 = EDGE_CURVE('',#330,#456,#458,.T.);
#456 = VERTEX_POINT('',#457);
#457 = CARTESIAN_POINT('',(-2.24999,2.25,4.));
#458 = CIRCLE('',#459,0.49999);
#459 = AXIS2_PLACEMENT_3D('',#460,#461,#462);
#460 = CARTESIAN_POINT('',(-2.24999,2.25,3.50001));
#461 = DIRECTION('',(0.,-1.,0.));
#462 = DIRECTION('',(1.,0.,0.));
#463 = ORIENTED_EDGE('',*,*,#337,.T.);
#464 = ORIENTED_EDGE('',*,*,#455,.T.);
#465 = ORIENTED_EDGE('',*,*,#466,.F.);
#466 = EDGE_CURVE('',#456,#456,#467,.T.);
#467 = CIRCLE('',#468,1.000000000001E-05);
#468 = AXIS2_PLACEMENT_3D('',#469,#470,#471);
#469 = CARTESIAN_POINT('',(-2.25,2.25,4.));
#470 = DIRECTION('',(0.,0.,1.));
#471 = DIRECTION('',(1.,0.,0.));
#472 = SURFACE_OF_REVOLUTION('',#473,#481);
#473 = B_SPLINE_CURVE_WITH_KNOTS('',6,(#474,#475,#476,#477,#478,#479,
    #480),.UNSPECIFIED.,.F.,.F.,(7,7),(0.,1.570796326795),
  .PIECEWISE_BEZIER_KNOTS.);
#474 = CARTESIAN_POINT('',(-1.75,2.25,3.50001));
#475 = CARTESIAN_POINT('',(-1.75,2.25,3.630907075906));
#476 = CARTESIAN_POINT('',(-1.791113020733,2.25,3.761793014588));
#477 = CARTESIAN_POINT('',(-1.873402457081,2.25,3.876597542919));
#478 = CARTESIAN_POINT('',(-1.988206985412,2.25,3.958886979267));
#479 = CARTESIAN_POINT('',(-2.119092924094,2.25,4.));
#480 = CARTESIAN_POINT('',(-2.24999,2.25,4.));
#481 = AXIS1_PLACEMENT('',#482,#483);
#482 = CARTESIAN_POINT('',(-2.25,2.25,3.50001));
#483 = DIRECTION('',(0.,0.,1.));
#484 = ADVANCED_FACE('',(#485),#505,.T.);
#485 = FACE_BOUND('',#486,.T.);
#486 = EDGE_LOOP('',(#487,#496,#497,#498));
#487 = ORIENTED_EDGE('',*,*,#488,.F.);
#488 = EDGE_CURVE('',#355,#489,#491,.T.);
#489 = VERTEX_POINT('',#490);
#490 = CARTESIAN_POINT('',(-2.24999,-2.25,4.));
#491 = CIRCLE('',#492,0.49999);
#492 = AXIS2_PLACEMENT_3D('',#493,#494,#495);
#493 = CARTESIAN_POINT('',(-2.24999,-2.25,3.50001));
#494 = DIRECTION('',(-1.840638632007E-30,-1.,1.840675445516E-30));
#495 = DIRECTION('',(1.,-1.840638632007E-30,-1.64346021921E-30));
#496 = ORIENTED_EDGE('',*,*,#362,.T.);
#497 = ORIENTED_EDGE('',*,*,#488,.T.);
#498 = ORIENTED_EDGE('',*,*,#499,.F.);
#499 = EDGE_CURVE('',#489,#489,#500,.T.);
#500 = CIRCLE('',#501,1.000000000001E-05);
#501 = AXIS2_PLACEMENT_3D('',#502,#503,#504);
#502 = CARTESIAN_POINT('',(-2.25,-2.25,4.));
#503 = DIRECTION('',(1.64346021921E-30,1.840675445516E-30,1.));
#504 = DIRECTION('',(1.,-1.840638632007E-30,-1.64346021921E-30));
#505 = SURFACE_OF_REVOLUTION('',#506,#514);
#506 = B_SPLINE_CURVE_WITH_KNOTS('',6,(#507,#508,#509,#510,#511,#512,
    #513),.UNSPECIFIED.,.F.,.F.,(7,7),(0.,1.570796326795),
  .PIECEWISE_BEZIER_KNOTS.);
#507 = CARTESIAN_POINT('',(-1.75,-2.25,3.50001));
#508 = CARTESIAN_POINT('',(-1.75,-2.25,3.630907075906));
#509 = CARTESIAN_POINT('',(-1.791113020733,-2.25,3.761793014588));
#510 = CARTESIAN_POINT('',(-1.873402457081,-2.25,3.876597542919));
#511 = CARTESIAN_POINT('',(-1.988206985412,-2.25,3.958886979267));
#512 = CARTESIAN_POINT('',(-2.119092924094,-2.25,4.));
#513 = CARTESIAN_POINT('',(-2.24999,-2.25,4.));
#514 = AXIS1_PLACEMENT('',#515,#516);
#515 = CARTESIAN_POINT('',(-2.25,-2.25,3.50001));
#516 = DIRECTION('',(1.64346021921E-30,1.840675445516E-30,1.));
#517 = ADVANCED_FACE('',(#518),#537,.T.);
#518 = FACE_BOUND('',#519,.F.);
#519 = EDGE_LOOP('',(#520,#528,#535,#536));
#520 = ORIENTED_EDGE('',*,*,#521,.T.);
#521 = EDGE_CURVE('',#386,#522,#524,.T.);
#522 = VERTEX_POINT('',#523);
#523 = CARTESIAN_POINT('',(0.5,2.5,-3.));
#524 = LINE('',#525,#526);
#525 = CARTESIAN_POINT('',(0.5,2.5,0.));
#526 = VECTOR('',#527,1.);
#527 = DIRECTION('',(0.,0.,-1.));
#528 = ORIENTED_EDGE('',*,*,#529,.T.);
#529 = EDGE_CURVE('',#522,#522,#530,.T.);
#530 = CIRCLE('',#531,0.5);
#531 = AXIS2_PLACEMENT_3D('',#532,#533,#534);
#532 = CARTESIAN_POINT('',(0.,2.5,-3.));
#533 = DIRECTION('',(0.,0.,-1.));
#534 = DIRECTION('',(1.,0.,0.));
#535 = ORIENTED_EDGE('',*,*,#521,.F.);
#536 = ORIENTED_EDGE('',*,*,#385,.F.);
#537 = CYLINDRICAL_SURFACE('',#538,0.5);
#538 = AXIS2_PLACEMENT_3D('',#539,#540,#541);
#539 = CARTESIAN_POINT('',(0.,2.5,0.));
#540 = DIRECTION('',(0.,0.,1.));
#541 = DIRECTION('',(1.,0.,0.));
#542 = ADVANCED_FACE('',(#543),#562,.T.);
#543 = FACE_BOUND('',#544,.F.);
#544 = EDGE_LOOP('',(#545,#553,#560,#561));
#545 = ORIENTED_EDGE('',*,*,#546,.T.);
#546 = EDGE_CURVE('',#397,#547,#549,.T.);
#547 = VERTEX_POINT('',#548);
#548 = CARTESIAN_POINT('',(0.5,-2.5,-3.));
#549 = LINE('',#550,#551);
#550 = CARTESIAN_POINT('',(0.5,-2.5,0.));
#551 = VECTOR('',#552,1.);
#552 = DIRECTION('',(0.,0.,-1.));
#553 = ORIENTED_EDGE('',*,*,#554,.T.);
#554 = EDGE_CURVE('',#547,#547,#555,.T.);
#555 = CIRCLE('',#556,0.5);
#556 = AXIS2_PLACEMENT_3D('',#557,#558,#559);
#557 = CARTESIAN_POINT('',(0.,-2.5,-3.));
#558 = DIRECTION('',(0.,0.,-1.));
#559 = DIRECTION('',(1.,0.,0.));
#560 = ORIENTED_EDGE('',*,*,#546,.F.);
#561 = ORIENTED_EDGE('',*,*,#396,.F.);
#562 = CYLINDRICAL_SURFACE('',#563,0.5);
#563 = AXIS2_PLACEMENT_3D('',#564,#565,#566);
#564 = CARTESIAN_POINT('',(0.,-2.5,0.));
#565 = DIRECTION('',(0.,0.,1.));
#566 = DIRECTION('',(1.,0.,0.));
#567 = ADVANCED_FACE('',(#568),#571,.T.);
#568 = FACE_BOUND('',#569,.T.);
#569 = EDGE_LOOP('',(#570));
#570 = ORIENTED_EDGE('',*,*,#433,.T.);
#571 = PLANE('',#572);
#572 = AXIS2_PLACEMENT_3D('',#573,#574,#575);
#573 = CARTESIAN_POINT('',(2.25,2.25,4.));
#574 = DIRECTION('',(0.,0.,1.));
#575 = DIRECTION('',(1.,0.,0.));
#576 = ADVANCED_FACE('',(#577),#580,.T.);
#577 = FACE_BOUND('',#578,.T.);
#578 = EDGE_LOOP('',(#579));
#579 = ORIENTED_EDGE('',*,*,#466,.T.);
#580 = PLANE('',#581);
#581 = AXIS2_PLACEMENT_3D('',#582,#583,#584);
#582 = CARTESIAN_POINT('',(-2.25,2.25,4.));
#583 = DIRECTION('',(0.,0.,1.));
#584 = DIRECTION('',(1.,0.,0.));
#585 = ADVANCED_FACE('',(#586),#589,.T.);
#586 = FACE_BOUND('',#587,.T.);
#587 = EDGE_LOOP('',(#588));
#588 = ORIENTED_EDGE('',*,*,#499,.T.);
#589 = PLANE('',#590);
#590 = AXIS2_PLACEMENT_3D('',#591,#592,#593);
#591 = CARTESIAN_POINT('',(-2.25,-2.25,4.));
#592 = DIRECTION('',(1.64346021921E-30,1.840675445516E-30,1.));
#593 = DIRECTION('',(0.,1.,-1.840675445516E-30));
#594 = ADVANCED_FACE('',(#595),#598,.T.);
#595 = FACE_BOUND('',#596,.T.);
#596 = EDGE_LOOP('',(#597));
#597 = ORIENTED_EDGE('',*,*,#529,.T.);
#598 = PLANE('',#599);
#599 = AXIS2_PLACEMENT_3D('',#600,#601,#602);
#600 = CARTESIAN_POINT('',(-1.068312603546E-17,2.5,-3.));
#601 = DIRECTION('',(-0.,-0.,-1.));
#602 = DIRECTION('',(-1.,0.,0.));
#603 = ADVANCED_FACE('',(#604),#607,.T.);
#604 = FACE_BOUND('',#605,.T.);
#605 = EDGE_LOOP('',(#606));
#606 = ORIENTED_EDGE('',*,*,#554,.T.);
#607 = PLANE('',#608);
#608 = AXIS2_PLACEMENT_3D('',#609,#610,#611);
#609 = CARTESIAN_POINT('',(-1.068312603546E-17,-2.5,-3.));
#610 = DIRECTION('',(-0.,-0.,-1.));
#611 = DIRECTION('',(-1.,0.,0.));
#612 = ( GEOMETRIC_REPRESENTATION_CONTEXT(3) 
GLOBAL_UNCERTAINTY_ASSIGNED_CONTEXT((#616)) GLOBAL_UNIT_ASSIGNED_CONTEXT
((#613,#614,#615)) REPRESENTATION_CONTEXT('Context #1',
  '3D Context with UNIT and UNCERTAINTY') );
#613 = ( LENGTH_UNIT() NAMED_UNIT(*) SI_UNIT(.MILLI.,.METRE.) );
#614 = ( NAMED_UNIT(*) PLANE_ANGLE_UNIT() SI_UNIT($,.RADIAN.) );
#615 = ( NAMED_UNIT(*) SI_UNIT($,.STERADIAN.) SOLID_ANGLE_UNIT() );
#616 = UNCERTAINTY_MEASURE_WITH_UNIT(LENGTH_MEASURE(1.E-07),#613,
  'distance_accuracy_value','confusion accuracy');
#617 = PRODUCT_RELATED_PRODUCT_CATEGORY('part',$,(#7));
#618 = MECHANICAL_DESIGN_GEOMETRIC_PRESENTATION_REPRESENTATION('',(#619,
    #627,#634,#642,#649,#656,#663,#670,#677,#684,#691,#698,#705,#712,
    #719,#726,#733,#740,#747,#754,#761,#768,#775,#782),#612);
#619 = STYLED_ITEM('color',(#620),#17);
#620 = PRESENTATION_STYLE_ASSIGNMENT((#621));
#621 = SURFACE_STYLE_USAGE(.BOTH.,#622);
#622 = SURFACE_SIDE_STYLE('',(#623));
#623 = SURFACE_STYLE_FILL_AREA(#624);
#624 = FILL_AREA_STYLE('',(#625));
#625 = FILL_AREA_STYLE_COLOUR('',#626);
#626 = COLOUR_RGB('',0.273000001907,0.273000001907,0.273000001907);
#627 = STYLED_ITEM('color',(#628),#50);
#628 = PRESENTATION_STYLE_ASSIGNMENT((#629));
#629 = SURFACE_STYLE_USAGE(.BOTH.,#630);
#630 = SURFACE_SIDE_STYLE('',(#631));
#631 = SURFACE_STYLE_FILL_AREA(#632);
#632 = FILL_AREA_STYLE('',(#633));
#633 = FILL_AREA_STYLE_COLOUR('',#626);
#634 = STYLED_ITEM('color',(#635),#83);
#635 = PRESENTATION_STYLE_ASSIGNMENT((#636));
#636 = SURFACE_STYLE_USAGE(.BOTH.,#637);
#637 = SURFACE_SIDE_STYLE('',(#638));
#638 = SURFACE_STYLE_FILL_AREA(#639);
#639 = FILL_AREA_STYLE('',(#640));
#640 = FILL_AREA_STYLE_COLOUR('',#641);
#641 = COLOUR_RGB('',0.824000000954,0.819999992847,0.78100001812);
#642 = STYLED_ITEM('color',(#643),#170);
#643 = PRESENTATION_STYLE_ASSIGNMENT((#644));
#644 = SURFACE_STYLE_USAGE(.BOTH.,#645);
#645 = SURFACE_SIDE_STYLE('',(#646));
#646 = SURFACE_STYLE_FILL_AREA(#647);
#647 = FILL_AREA_STYLE('',(#648));
#648 = FILL_AREA_STYLE_COLOUR('',#626);
#649 = STYLED_ITEM('color',(#650),#179);
#650 = PRESENTATION_STYLE_ASSIGNMENT((#651));
#651 = SURFACE_STYLE_USAGE(.BOTH.,#652);
#652 = SURFACE_SIDE_STYLE('',(#653));
#653 = SURFACE_STYLE_FILL_AREA(#654);
#654 = FILL_AREA_STYLE('',(#655));
#655 = FILL_AREA_STYLE_COLOUR('',#626);
#656 = STYLED_ITEM('color',(#657),#210);
#657 = PRESENTATION_STYLE_ASSIGNMENT((#658));
#658 = SURFACE_STYLE_USAGE(.BOTH.,#659);
#659 = SURFACE_SIDE_STYLE('',(#660));
#660 = SURFACE_STYLE_FILL_AREA(#661);
#661 = FILL_AREA_STYLE('',(#662));
#662 = FILL_AREA_STYLE_COLOUR('',#626);
#663 = STYLED_ITEM('color',(#664),#234);
#664 = PRESENTATION_STYLE_ASSIGNMENT((#665));
#665 = SURFACE_STYLE_USAGE(.BOTH.,#666);
#666 = SURFACE_SIDE_STYLE('',(#667));
#667 = SURFACE_STYLE_FILL_AREA(#668);
#668 = FILL_AREA_STYLE('',(#669));
#669 = FILL_AREA_STYLE_COLOUR('',#626);
#670 = STYLED_ITEM('color',(#671),#258);
#671 = PRESENTATION_STYLE_ASSIGNMENT((#672));
#672 = SURFACE_STYLE_USAGE(.BOTH.,#673);
#673 = SURFACE_SIDE_STYLE('',(#674));
#674 = SURFACE_STYLE_FILL_AREA(#675);
#675 = FILL_AREA_STYLE('',(#676));
#676 = FILL_AREA_STYLE_COLOUR('',#626);
#677 = STYLED_ITEM('color',(#678),#275);
#678 = PRESENTATION_STYLE_ASSIGNMENT((#679));
#679 = SURFACE_STYLE_USAGE(.BOTH.,#680);
#680 = SURFACE_SIDE_STYLE('',(#681));
#681 = SURFACE_STYLE_FILL_AREA(#682);
#682 = FILL_AREA_STYLE('',(#683));
#683 = FILL_AREA_STYLE_COLOUR('',#626);
#684 = STYLED_ITEM('color',(#685),#300);
#685 = PRESENTATION_STYLE_ASSIGNMENT((#686));
#686 = SURFACE_STYLE_USAGE(.BOTH.,#687);
#687 = SURFACE_SIDE_STYLE('',(#688));
#688 = SURFACE_STYLE_FILL_AREA(#689);
#689 = FILL_AREA_STYLE('',(#690));
#690 = FILL_AREA_STYLE_COLOUR('',#626);
#691 = STYLED_ITEM('color',(#692),#325);
#692 = PRESENTATION_STYLE_ASSIGNMENT((#693));
#693 = SURFACE_STYLE_USAGE(.BOTH.,#694);
#694 = SURFACE_SIDE_STYLE('',(#695));
#695 = SURFACE_STYLE_FILL_AREA(#696);
#696 = FILL_AREA_STYLE('',(#697));
#697 = FILL_AREA_STYLE_COLOUR('',#626);
#698 = STYLED_ITEM('color',(#699),#350);
#699 = PRESENTATION_STYLE_ASSIGNMENT((#700));
#700 = SURFACE_STYLE_USAGE(.BOTH.,#701);
#701 = SURFACE_SIDE_STYLE('',(#702));
#702 = SURFACE_STYLE_FILL_AREA(#703);
#703 = FILL_AREA_STYLE('',(#704));
#704 = FILL_AREA_STYLE_COLOUR('',#626);
#705 = STYLED_ITEM('color',(#706),#375);
#706 = PRESENTATION_STYLE_ASSIGNMENT((#707));
#707 = SURFACE_STYLE_USAGE(.BOTH.,#708);
#708 = SURFACE_SIDE_STYLE('',(#709));
#709 = SURFACE_STYLE_FILL_AREA(#710);
#710 = FILL_AREA_STYLE('',(#711));
#711 = FILL_AREA_STYLE_COLOUR('',#626);
#712 = STYLED_ITEM('color',(#713),#409);
#713 = PRESENTATION_STYLE_ASSIGNMENT((#714));
#714 = SURFACE_STYLE_USAGE(.BOTH.,#715);
#715 = SURFACE_SIDE_STYLE('',(#716));
#716 = SURFACE_STYLE_FILL_AREA(#717);
#717 = FILL_AREA_STYLE('',(#718));
#718 = FILL_AREA_STYLE_COLOUR('',#626);
#719 = STYLED_ITEM('color',(#720),#418);
#720 = PRESENTATION_STYLE_ASSIGNMENT((#721));
#721 = SURFACE_STYLE_USAGE(.BOTH.,#722);
#722 = SURFACE_SIDE_STYLE('',(#723));
#723 = SURFACE_STYLE_FILL_AREA(#724);
#724 = FILL_AREA_STYLE('',(#725));
#725 = FILL_AREA_STYLE_COLOUR('',#626);
#726 = STYLED_ITEM('color',(#727),#451);
#727 = PRESENTATION_STYLE_ASSIGNMENT((#728));
#728 = SURFACE_STYLE_USAGE(.BOTH.,#729);
#729 = SURFACE_SIDE_STYLE('',(#730));
#730 = SURFACE_STYLE_FILL_AREA(#731);
#731 = FILL_AREA_STYLE('',(#732));
#732 = FILL_AREA_STYLE_COLOUR('',#626);
#733 = STYLED_ITEM('color',(#734),#484);
#734 = PRESENTATION_STYLE_ASSIGNMENT((#735));
#735 = SURFACE_STYLE_USAGE(.BOTH.,#736);
#736 = SURFACE_SIDE_STYLE('',(#737));
#737 = SURFACE_STYLE_FILL_AREA(#738);
#738 = FILL_AREA_STYLE('',(#739));
#739 = FILL_AREA_STYLE_COLOUR('',#626);
#740 = STYLED_ITEM('color',(#741),#517);
#741 = PRESENTATION_STYLE_ASSIGNMENT((#742));
#742 = SURFACE_STYLE_USAGE(.BOTH.,#743);
#743 = SURFACE_SIDE_STYLE('',(#744));
#744 = SURFACE_STYLE_FILL_AREA(#745);
#745 = FILL_AREA_STYLE('',(#746));
#746 = FILL_AREA_STYLE_COLOUR('',#641);
#747 = STYLED_ITEM('color',(#748),#542);
#748 = PRESENTATION_STYLE_ASSIGNMENT((#749));
#749 = SURFACE_STYLE_USAGE(.BOTH.,#750);
#750 = SURFACE_SIDE_STYLE('',(#751));
#751 = SURFACE_STYLE_FILL_AREA(#752);
#752 = FILL_AREA_STYLE('',(#753));
#753 = FILL_AREA_STYLE_COLOUR('',#641);
#754 = STYLED_ITEM('color',(#755),#567);
#755 = PRESENTATION_STYLE_ASSIGNMENT((#756));
#756 = SURFACE_STYLE_USAGE(.BOTH.,#757);
#757 = SURFACE_SIDE_STYLE('',(#758));
#758 = SURFACE_STYLE_FILL_AREA(#759);
#759 = FILL_AREA_STYLE('',(#760));
#760 = FILL_AREA_STYLE_COLOUR('',#626);
#761 = STYLED_ITEM('color',(#762),#576);
#762 = PRESENTATION_STYLE_ASSIGNMENT((#763));
#763 = SURFACE_STYLE_USAGE(.BOTH.,#764);
#764 = SURFACE_SIDE_STYLE('',(#765));
#765 = SURFACE_STYLE_FILL_AREA(#766);
#766 = FILL_AREA_STYLE('',(#767));
#767 = FILL_AREA_STYLE_COLOUR('',#626);
#768 = STYLED_ITEM('color',(#769),#585);
#769 = PRESENTATION_STYLE_ASSIGNMENT((#770));
#770 = SURFACE_STYLE_USAGE(.BOTH.,#771);
#771 = SURFACE_SIDE_STYLE('',(#772));
#772 = SURFACE_STYLE_FILL_AREA(#773);
#773 = FILL_AREA_STYLE('',(#774));
#774 = FILL_AREA_STYLE_COLOUR('',#626);
#775 = STYLED_ITEM('color',(#776),#594);
#776 = PRESENTATION_STYLE_ASSIGNMENT((#777));
#777 = SURFACE_STYLE_USAGE(.BOTH.,#778);
#778 = SURFACE_SIDE_STYLE('',(#779));
#779 = SURFACE_STYLE_FILL_AREA(#780);
#780 = FILL_AREA_STYLE('',(#781));
#781 = FILL_AREA_STYLE_COLOUR('',#641);
#782 = STYLED_ITEM('color',(#783),#603);
#783 = PRESENTATION_STYLE_ASSIGNMENT((#784));
#784 = SURFACE_STYLE_USAGE(.BOTH.,#785);
#785 = SURFACE_SIDE_STYLE('',(#786));
#786 = SURFACE_STYLE_FILL_AREA(#787);
#787 = FILL_AREA_STYLE('',(#788));
#788 = FILL_AREA_STYLE_COLOUR('',#641);
ENDSEC;
END-ISO-10303-21;
