EESchema Schematic File Version 4
EELAYER 30 0
EELAYER END
$Descr A4 11693 8268
encoding utf-8
Sheet 1 1
Title "Electronic Ecuavolley's Score-board"
Date ""
Rev "v0.0"
Comp "josejacomeb"
Comment1 ""
Comment2 " 2 Shift registers and 2 common anode 7-seg display 2 digits "
Comment3 "Electronic score-board based with a PIC16F628A,"
Comment4 "Author: José Jácome josejacomeb@gmail.com"
$EndDescr
$Comp
L Transistor_BJT:2N3904 Q3
U 1 1 61D93B43
P 4300 5400
F 0 "Q3" H 4450 5500 50  0000 L CNN
F 1 "2N3904" H 4100 5225 50  0000 L CNN
F 2 "Package_TO_SOT_THT:TO-92_Inline" H 4500 5325 50  0001 L CIN
F 3 "https://www.fairchildsemi.com/datasheets/2N/2N3904.pdf" H 4300 5400 50  0001 L CNN
	1    4300 5400
	1    0    0    -1  
$EndComp
$Comp
L Transistor_BJT:2N3906 Q4
U 1 1 61D94207
P 9400 2650
F 0 "Q4" H 9225 2600 50  0000 L CNN
F 1 "2N3906" V 9600 2500 50  0000 L CNN
F 2 "Package_TO_SOT_THT:TO-92_Inline" H 9600 2575 50  0001 L CIN
F 3 "https://www.fairchildsemi.com/datasheets/2N/2N3906.pdf" H 9400 2650 50  0001 L CNN
	1    9400 2650
	-1   0    0    1   
$EndComp
$Comp
L Device:CP C1
U 1 1 61D95C67
P 3500 5050
F 0 "C1" H 3618 5096 50  0000 L CNN
F 1 "0.1uF" H 3618 5005 50  0000 L CNN
F 2 "Capacitor_THT:CP_Radial_D5.0mm_P2.50mm" H 3538 4900 50  0001 C CNN
F 3 "~" H 3500 5050 50  0001 C CNN
	1    3500 5050
	1    0    0    -1  
$EndComp
$Comp
L power:VCC #PWR02
U 1 1 61D96A8D
P 3500 4750
F 0 "#PWR02" H 3500 4600 50  0001 C CNN
F 1 "VCC" H 3517 4923 50  0000 C CNN
F 2 "" H 3500 4750 50  0001 C CNN
F 3 "" H 3500 4750 50  0001 C CNN
	1    3500 4750
	1    0    0    -1  
$EndComp
$Comp
L power:GND #PWR03
U 1 1 61D9854D
P 3500 5300
F 0 "#PWR03" H 3500 5050 50  0001 C CNN
F 1 "GND" H 3505 5127 50  0000 C CNN
F 2 "" H 3500 5300 50  0001 C CNN
F 3 "" H 3500 5300 50  0001 C CNN
	1    3500 5300
	1    0    0    -1  
$EndComp
$Comp
L dk_Logic-Shift-Registers:SN74HC164N U4
U 1 1 61DA409C
P 6850 2800
F 0 "U4" H 6850 3550 60  0000 C CNN
F 1 "SN74HC164N" H 6850 3450 60  0000 C CNN
F 2 "Package_DIP:DIP-14_W7.62mm" H 7050 3000 60  0001 L CNN
F 3 "http://www.ti.com/general/docs/suppproductinfo.tsp?distId=10&gotoUrl=http%3A%2F%2Fwww.ti.com%2Flit%2Fgpn%2Fsn74hc164" H 7050 3100 60  0001 L CNN
F 4 "296-8248-5-ND" H 7050 3200 60  0001 L CNN "Digi-Key_PN"
F 5 "SN74HC164N" H 7050 3300 60  0001 L CNN "MPN"
F 6 "Integrated Circuits (ICs)" H 7050 3400 60  0001 L CNN "Category"
F 7 "Logic - Shift Registers" H 7050 3500 60  0001 L CNN "Family"
F 8 "http://www.ti.com/general/docs/suppproductinfo.tsp?distId=10&gotoUrl=http%3A%2F%2Fwww.ti.com%2Flit%2Fgpn%2Fsn74hc164" H 7050 3600 60  0001 L CNN "DK_Datasheet_Link"
F 9 "/product-detail/en/texas-instruments/SN74HC164N/296-8248-5-ND/376946" H 7050 3700 60  0001 L CNN "DK_Detail_Page"
F 10 "IC 8-BIT SHIFT REGISTER 14-DIP" H 7050 3800 60  0001 L CNN "Description"
F 11 "Texas Instruments" H 7050 3900 60  0001 L CNN "Manufacturer"
F 12 "Active" H 7050 4000 60  0001 L CNN "Status"
	1    6850 2800
	1    0    0    -1  
$EndComp
$Comp
L Switch:SW_Push SW1
U 1 1 61D9BB4C
P 7850 5150
F 0 "SW1" V 7804 5298 50  0000 L CNN
F 1 "Left" V 7895 5298 50  0000 L CNN
F 2 "Ecuavolley Electronic Marker:SPST_Button" H 7850 5350 50  0001 C CNN
F 3 "~" H 7850 5350 50  0001 C CNN
	1    7850 5150
	0    1    1    0   
$EndComp
$Comp
L Switch:SW_Push SW2
U 1 1 61D9BF76
P 8400 5150
F 0 "SW2" V 8354 5298 50  0000 L CNN
F 1 "Right" V 8445 5298 50  0000 L CNN
F 2 "Ecuavolley Electronic Marker:SPST_Button" H 8400 5350 50  0001 C CNN
F 3 "~" H 8400 5350 50  0001 C CNN
	1    8400 5150
	0    1    1    0   
$EndComp
$Comp
L Device:R R23
U 1 1 61DA1060
P 8400 4600
F 0 "R23" H 8470 4646 50  0000 L CNN
F 1 "10k" H 8470 4555 50  0000 L CNN
F 2 "Resistor_THT:R_Axial_DIN0309_L9.0mm_D3.2mm_P12.70mm_Horizontal" V 8330 4600 50  0001 C CNN
F 3 "~" H 8400 4600 50  0001 C CNN
	1    8400 4600
	1    0    0    -1  
$EndComp
$Comp
L Device:R R24
U 1 1 61DA1323
P 8900 4600
F 0 "R24" H 8970 4646 50  0000 L CNN
F 1 "10k" H 8970 4555 50  0000 L CNN
F 2 "Resistor_THT:R_Axial_DIN0309_L9.0mm_D3.2mm_P12.70mm_Horizontal" V 8830 4600 50  0001 C CNN
F 3 "~" H 8900 4600 50  0001 C CNN
	1    8900 4600
	1    0    0    -1  
$EndComp
$Comp
L Switch:SW_Push SW3
U 1 1 61DA1B5D
P 8900 5150
F 0 "SW3" V 8854 5298 50  0000 L CNN
F 1 "Reset" V 8945 5298 50  0000 L CNN
F 2 "Ecuavolley Electronic Marker:SPST_Button" H 8900 5350 50  0001 C CNN
F 3 "~" H 8900 5350 50  0001 C CNN
	1    8900 5150
	0    1    1    0   
$EndComp
$Comp
L Device:R R22
U 1 1 61D9EB17
P 7850 4600
F 0 "R22" H 7920 4646 50  0000 L CNN
F 1 "10k" H 7920 4555 50  0000 L CNN
F 2 "Resistor_THT:R_Axial_DIN0309_L9.0mm_D3.2mm_P12.70mm_Horizontal" V 7780 4600 50  0001 C CNN
F 3 "~" H 7850 4600 50  0001 C CNN
	1    7850 4600
	1    0    0    -1  
$EndComp
$Comp
L Device:Buzzer BZ1
U 1 1 61DB1889
P 4250 5050
F 0 "BZ1" H 4300 5300 50  0000 C CNN
F 1 "Buzzer" H 4300 5250 50  0000 C CNN
F 2 "Buzzer_Beeper:Buzzer_12x9.5RM7.6" V 4225 5150 50  0001 C CNN
F 3 "~" V 4225 5150 50  0001 C CNN
	1    4250 5050
	-1   0    0    -1  
$EndComp
$Comp
L power:GND #PWR012
U 1 1 61DB6C73
P 8400 5450
F 0 "#PWR012" H 8400 5200 50  0001 C CNN
F 1 "GND" H 8405 5277 50  0000 C CNN
F 2 "" H 8400 5450 50  0001 C CNN
F 3 "" H 8400 5450 50  0001 C CNN
	1    8400 5450
	1    0    0    -1  
$EndComp
Wire Wire Line
	7850 5400 8400 5400
Connection ~ 8400 5400
Wire Wire Line
	8900 5400 8400 5400
$Comp
L power:VCC #PWR011
U 1 1 61DBAEF7
P 8400 4250
F 0 "#PWR011" H 8400 4100 50  0001 C CNN
F 1 "VCC" H 8417 4423 50  0000 C CNN
F 2 "" H 8400 4250 50  0001 C CNN
F 3 "" H 8400 4250 50  0001 C CNN
	1    8400 4250
	1    0    0    -1  
$EndComp
$Comp
L Device:R R3
U 1 1 61DCAB7C
P 3900 5050
F 0 "R3" H 3970 5096 50  0000 L CNN
F 1 "10k" H 3970 5005 50  0000 L CNN
F 2 "Resistor_THT:R_Axial_DIN0309_L9.0mm_D3.2mm_P12.70mm_Horizontal" V 3830 5050 50  0001 C CNN
F 3 "~" H 3900 5050 50  0001 C CNN
	1    3900 5050
	1    0    0    -1  
$EndComp
$Comp
L power:VCC #PWR04
U 1 1 61DF591A
P 4400 4900
F 0 "#PWR04" H 4400 4750 50  0001 C CNN
F 1 "VCC" H 4400 5050 50  0000 C CNN
F 2 "" H 4400 4900 50  0001 C CNN
F 3 "" H 4400 4900 50  0001 C CNN
	1    4400 4900
	1    0    0    -1  
$EndComp
Wire Wire Line
	4400 5150 4350 5150
Wire Wire Line
	4400 5200 4400 5150
Wire Wire Line
	3900 4900 3900 4700
Wire Wire Line
	3900 5200 3900 5400
Wire Wire Line
	3900 5400 4100 5400
$Comp
L power:GND #PWR010
U 1 1 61E615CB
P 6850 3600
F 0 "#PWR010" H 6850 3350 50  0001 C CNN
F 1 "GND" H 6855 3427 50  0000 C CNN
F 2 "" H 6850 3600 50  0001 C CNN
F 3 "" H 6850 3600 50  0001 C CNN
	1    6850 3600
	1    0    0    -1  
$EndComp
Wire Wire Line
	9300 2850 9300 3000
Wire Wire Line
	9300 3000 9100 3000
$Comp
L Device:R R13
U 1 1 61E6AEEF
P 7475 3500
F 0 "R13" H 7545 3546 50  0000 L CNN
F 1 "330" H 7545 3455 50  0000 L CNN
F 2 "Resistor_THT:R_Axial_DIN0309_L9.0mm_D3.2mm_P12.70mm_Horizontal" V 7405 3500 50  0001 C CNN
F 3 "~" H 7475 3500 50  0001 C CNN
	1    7475 3500
	0    -1   -1   0   
$EndComp
$Comp
L Transistor_BJT:2N3906 Q5
U 1 1 61E7B62C
P 10050 2650
F 0 "Q5" H 9875 2600 50  0000 L CNN
F 1 "2N3906" V 10250 2500 50  0000 L CNN
F 2 "Package_TO_SOT_THT:TO-92_Inline" H 10250 2575 50  0001 L CIN
F 3 "https://www.fairchildsemi.com/datasheets/2N/2N3906.pdf" H 10050 2650 50  0001 L CNN
	1    10050 2650
	-1   0    0    1   
$EndComp
$Comp
L Device:R R25
U 1 1 61EA98AA
P 9650 2850
F 0 "R25" H 9720 2896 50  0000 L CNN
F 1 "1K" H 9720 2805 50  0000 L CNN
F 2 "Resistor_THT:R_Axial_DIN0309_L9.0mm_D3.2mm_P12.70mm_Horizontal" V 9580 2850 50  0001 C CNN
F 3 "~" H 9650 2850 50  0001 C CNN
	1    9650 2850
	1    0    0    -1  
$EndComp
$Comp
L Device:R R26
U 1 1 61EABB2D
P 10300 2850
F 0 "R26" H 10370 2896 50  0000 L CNN
F 1 "1K" H 10370 2805 50  0000 L CNN
F 2 "Resistor_THT:R_Axial_DIN0309_L9.0mm_D3.2mm_P12.70mm_Horizontal" V 10230 2850 50  0001 C CNN
F 3 "~" H 10300 2850 50  0001 C CNN
	1    10300 2850
	1    0    0    -1  
$EndComp
Wire Wire Line
	9100 3100 9950 3100
Wire Wire Line
	10250 2650 10300 2650
Wire Wire Line
	10300 2650 10300 2700
Wire Wire Line
	9950 2850 9950 3100
Wire Wire Line
	6500 2600 6500 2700
Wire Wire Line
	6500 2700 6550 2700
Wire Wire Line
	7850 5350 7850 5400
Wire Wire Line
	8400 5350 8400 5400
Wire Wire Line
	8900 5350 8900 5400
$Comp
L Device:R R14
U 1 1 620F8424
P 5075 5500
F 0 "R14" H 5145 5546 50  0000 L CNN
F 1 "330" H 5145 5455 50  0000 L CNN
F 2 "Resistor_THT:R_Axial_DIN0309_L9.0mm_D3.2mm_P12.70mm_Horizontal" V 5005 5500 50  0001 C CNN
F 3 "~" H 5075 5500 50  0001 C CNN
	1    5075 5500
	0    -1   -1   0   
$EndComp
Wire Wire Line
	7230 5000 7430 5000
$Comp
L Transistor_BJT:2N3906 Q2
U 1 1 621532BC
P 2800 2650
F 0 "Q2" H 2625 2600 50  0000 L CNN
F 1 "2N3906" V 3000 2500 50  0000 L CNN
F 2 "Package_TO_SOT_THT:TO-92_Inline" H 3000 2575 50  0001 L CIN
F 3 "https://www.fairchildsemi.com/datasheets/2N/2N3906.pdf" H 2800 2650 50  0001 L CNN
	1    2800 2650
	1    0    0    1   
$EndComp
$Comp
L dk_Logic-Shift-Registers:SN74HC164N U2
U 1 1 621532CB
P 5350 2800
F 0 "U2" H 5350 3550 60  0000 C CNN
F 1 "SN74HC164N" H 5350 3450 60  0000 C CNN
F 2 "Package_DIP:DIP-14_W7.62mm" H 5550 3000 60  0001 L CNN
F 3 "http://www.ti.com/general/docs/suppproductinfo.tsp?distId=10&gotoUrl=http%3A%2F%2Fwww.ti.com%2Flit%2Fgpn%2Fsn74hc164" H 5550 3100 60  0001 L CNN
F 4 "296-8248-5-ND" H 5550 3200 60  0001 L CNN "Digi-Key_PN"
F 5 "SN74HC164N" H 5550 3300 60  0001 L CNN "MPN"
F 6 "Integrated Circuits (ICs)" H 5550 3400 60  0001 L CNN "Category"
F 7 "Logic - Shift Registers" H 5550 3500 60  0001 L CNN "Family"
F 8 "http://www.ti.com/general/docs/suppproductinfo.tsp?distId=10&gotoUrl=http%3A%2F%2Fwww.ti.com%2Flit%2Fgpn%2Fsn74hc164" H 5550 3600 60  0001 L CNN "DK_Datasheet_Link"
F 9 "/product-detail/en/texas-instruments/SN74HC164N/296-8248-5-ND/376946" H 5550 3700 60  0001 L CNN "DK_Detail_Page"
F 10 "IC 8-BIT SHIFT REGISTER 14-DIP" H 5550 3800 60  0001 L CNN "Description"
F 11 "Texas Instruments" H 5550 3900 60  0001 L CNN "Manufacturer"
F 12 "Active" H 5550 4000 60  0001 L CNN "Status"
	1    5350 2800
	-1   0    0    -1  
$EndComp
$Comp
L Device:R R4
U 1 1 621532FB
P 4625 2400
F 0 "R4" V 4600 2250 39  0000 C CNN
F 1 "330" V 4625 2400 39  0000 C CNN
F 2 "Resistor_THT:R_Axial_DIN0309_L9.0mm_D3.2mm_P12.70mm_Horizontal" V 4555 2400 50  0001 C CNN
F 3 "~" H 4625 2400 50  0001 C CNN
	1    4625 2400
	0    -1   1    0   
$EndComp
$Comp
L power:VCC #PWR05
U 1 1 6215331B
P 5350 1950
F 0 "#PWR05" H 5350 1800 50  0001 C CNN
F 1 "VCC" H 5367 2123 50  0000 C CNN
F 2 "" H 5350 1950 50  0001 C CNN
F 3 "" H 5350 1950 50  0001 C CNN
	1    5350 1950
	-1   0    0    -1  
$EndComp
$Comp
L power:GND #PWR06
U 1 1 62153321
P 5350 3650
F 0 "#PWR06" H 5350 3400 50  0001 C CNN
F 1 "GND" H 5355 3477 50  0000 C CNN
F 2 "" H 5350 3650 50  0001 C CNN
F 3 "" H 5350 3650 50  0001 C CNN
	1    5350 3650
	-1   0    0    -1  
$EndComp
Wire Wire Line
	2900 2850 2900 3000
Wire Wire Line
	2900 3000 3100 3000
$Comp
L Device:R R12
U 1 1 62153329
P 4720 3500
F 0 "R12" H 4790 3546 50  0000 L CNN
F 1 "330" H 4790 3455 50  0000 L CNN
F 2 "Resistor_THT:R_Axial_DIN0309_L9.0mm_D3.2mm_P12.70mm_Horizontal" V 4650 3500 50  0001 C CNN
F 3 "~" H 4720 3500 50  0001 C CNN
	1    4720 3500
	0    1    -1   0   
$EndComp
$Comp
L Device:LED D2
U 1 1 6215332F
P 5100 3500
F 0 "D2" H 5093 3700 50  0000 C CNN
F 1 "LEFT_SERVE" H 5093 3617 39  0000 C CNN
F 2 "LED_THT:LED_D5.0mm" H 5100 3500 50  0001 C CNN
F 3 "~" H 5100 3500 50  0001 C CNN
	1    5100 3500
	-1   0    0    -1  
$EndComp
$Comp
L Transistor_BJT:2N3906 Q1
U 1 1 62153337
P 2150 2650
F 0 "Q1" H 1975 2600 50  0000 L CNN
F 1 "2N3906" V 2350 2500 50  0000 L CNN
F 2 "Package_TO_SOT_THT:TO-92_Inline" H 2350 2575 50  0001 L CIN
F 3 "https://www.fairchildsemi.com/datasheets/2N/2N3906.pdf" H 2150 2650 50  0001 L CNN
	1    2150 2650
	1    0    0    1   
$EndComp
$Comp
L power:VCC #PWR01
U 1 1 6215333D
P 2625 2350
F 0 "#PWR01" H 2625 2200 50  0001 C CNN
F 1 "VCC" H 2642 2523 50  0000 C CNN
F 2 "" H 2625 2350 50  0001 C CNN
F 3 "" H 2625 2350 50  0001 C CNN
	1    2625 2350
	-1   0    0    -1  
$EndComp
Wire Wire Line
	2900 2450 2900 2400
Wire Wire Line
	2900 2400 2625 2400
Wire Wire Line
	2625 2350 2625 2400
Connection ~ 2625 2400
$Comp
L Device:R R2
U 1 1 6215334D
P 2550 2825
F 0 "R2" H 2620 2871 50  0000 L CNN
F 1 "1K" H 2620 2780 50  0000 L CNN
F 2 "Resistor_THT:R_Axial_DIN0309_L9.0mm_D3.2mm_P12.70mm_Horizontal" V 2480 2825 50  0001 C CNN
F 3 "~" H 2550 2825 50  0001 C CNN
	1    2550 2825
	-1   0    0    -1  
$EndComp
Wire Wire Line
	2600 2650 2550 2650
$Comp
L Device:R R1
U 1 1 62153354
P 1900 2850
F 0 "R1" H 1970 2896 50  0000 L CNN
F 1 "1K" H 1970 2805 50  0000 L CNN
F 2 "Resistor_THT:R_Axial_DIN0309_L9.0mm_D3.2mm_P12.70mm_Horizontal" V 1830 2850 50  0001 C CNN
F 3 "~" H 1900 2850 50  0001 C CNN
	1    1900 2850
	-1   0    0    -1  
$EndComp
Wire Wire Line
	3100 3100 2250 3100
Wire Wire Line
	2625 2400 2250 2400
Wire Wire Line
	2250 2400 2250 2450
Wire Wire Line
	1950 2650 1900 2650
Wire Wire Line
	2550 2650 2550 2675
Wire Wire Line
	1900 2650 1900 2700
Wire Wire Line
	2250 2850 2250 3100
Wire Wire Line
	2025 3050 1900 3050
Wire Wire Line
	1900 3050 1900 3000
Wire Wire Line
	2550 3050 2550 2975
Wire Wire Line
	2675 3050 2550 3050
Wire Wire Line
	5650 2600 5700 2600
Wire Wire Line
	5700 2600 5700 2700
$Comp
L Ecuavolley-Electronic-Marker:HS21056K-16 U1
U 1 1 61DB9907
P 3700 2700
F 0 "U1" H 3700 3367 50  0000 C CNN
F 1 "LEFT-2x7-Seg" H 3700 3276 50  0000 C CNN
F 2 "Ecuavolley Electronic Marker:HS210561K-16" H 3700 2150 50  0001 C CNN
F 3 "https://docs.rs-online.com/9dbe/0900766b813e45ed.pdf" H 3600 2800 50  0001 C CNN
	1    3700 2700
	-1   0    0    -1  
$EndComp
$Comp
L Ecuavolley-Electronic-Marker:HS21056K-16 U5
U 1 1 61DE6A88
P 8500 2700
F 0 "U5" H 8500 3367 50  0000 C CNN
F 1 "RIGHT-2x7-Seg" H 8500 3276 50  0000 C CNN
F 2 "Ecuavolley Electronic Marker:HS210561K-16" H 8500 2150 50  0001 C CNN
F 3 "https://docs.rs-online.com/9dbe/0900766b813e45ed.pdf" H 8400 2800 50  0001 C CNN
	1    8500 2700
	1    0    0    -1  
$EndComp
Wire Wire Line
	5650 2700 5700 2700
Wire Wire Line
	5950 2800 5650 2800
Wire Wire Line
	6550 2600 6500 2600
Wire Wire Line
	10175 3050 10300 3050
Wire Wire Line
	10300 3050 10300 3000
Wire Wire Line
	5700 2700 5950 2700
Connection ~ 5700 2700
Text Label 5725 2700 0    50   ~ 0
L_S_R
Text Label 5800 2800 0    50   ~ 0
CLK
Text Label 2575 3050 0    50   ~ 0
D1
Text Label 1925 3050 0    50   ~ 0
D2
Text Label 6250 2700 0    50   ~ 0
R_S_R
Text Label 6250 2800 0    50   ~ 0
CLK
Text Label 9525 3050 0    50   ~ 0
D1
Wire Wire Line
	9525 3050 9650 3050
Wire Wire Line
	6500 2700 6250 2700
Connection ~ 6500 2700
Wire Wire Line
	6550 2800 6250 2800
Text Label 10175 3050 0    50   ~ 0
D2
Text Label 7230 4700 0    50   ~ 0
L_S_R
Text Label 7230 4400 0    50   ~ 0
R_S_R
Text Label 4750 4900 0    50   ~ 0
R_S_L
$Comp
L power:VCC #PWR014
U 1 1 625ABFA5
P 3750 3650
F 0 "#PWR014" H 3750 3500 50  0001 C CNN
F 1 "VCC" H 3767 3823 50  0000 C CNN
F 2 "" H 3750 3650 50  0001 C CNN
F 3 "" H 3750 3650 50  0001 C CNN
	1    3750 3650
	1    0    0    -1  
$EndComp
Text Label 4750 5100 0    50   ~ 0
PGD
Text Label 4750 5000 0    50   ~ 0
PGC
Text Label 3550 3750 0    50   ~ 0
Vpp
$Comp
L power:GND #PWR015
U 1 1 628E2EEB
P 3750 4250
F 0 "#PWR015" H 3750 4000 50  0001 C CNN
F 1 "GND" H 3755 4077 50  0000 C CNN
F 2 "" H 3750 4250 50  0001 C CNN
F 3 "" H 3750 4250 50  0001 C CNN
	1    3750 4250
	1    0    0    -1  
$EndComp
Text Label 3550 4050 0    50   ~ 0
PGD
Text Label 3550 4150 0    50   ~ 0
PGC
$Comp
L Device:LED D1
U 1 1 6207EB8B
P 4600 5675
F 0 "D1" V 4639 5558 50  0000 R CNN
F 1 "SET_LEFT" V 4548 5558 50  0000 R CNN
F 2 "LED_THT:LED_D5.0mm" H 4600 5675 50  0001 C CNN
F 3 "~" H 4600 5675 50  0001 C CNN
	1    4600 5675
	0    -1   -1   0   
$EndComp
$Comp
L Device:R R11
U 1 1 6207AF99
P 4600 5200
F 0 "R11" H 4670 5246 50  0000 L CNN
F 1 "330" H 4670 5155 50  0000 L CNN
F 2 "Resistor_THT:R_Axial_DIN0309_L9.0mm_D3.2mm_P12.70mm_Horizontal" V 4530 5200 50  0001 C CNN
F 3 "~" H 4600 5200 50  0001 C CNN
	1    4600 5200
	1    0    0    -1  
$EndComp
Wire Wire Line
	3750 4250 3750 3950
$Comp
L power:VCC #PWR0101
U 1 1 62A90F91
P 6850 1950
F 0 "#PWR0101" H 6850 1800 50  0001 C CNN
F 1 "VCC" H 6867 2123 50  0000 C CNN
F 2 "" H 6850 1950 50  0001 C CNN
F 3 "" H 6850 1950 50  0001 C CNN
	1    6850 1950
	-1   0    0    -1  
$EndComp
$Comp
L power:VCC #PWR0102
U 1 1 62ADB147
P 6100 2800
F 0 "#PWR0102" H 6100 2650 50  0001 C CNN
F 1 "VCC" H 6117 2973 50  0000 C CNN
F 2 "" H 6100 2800 50  0001 C CNN
F 3 "" H 6100 2800 50  0001 C CNN
	1    6100 2800
	1    0    0    -1  
$EndComp
$Comp
L Connector:Barrel_Jack J1
U 1 1 62B1264C
P 2900 4950
F 0 "J1" H 2957 5275 50  0000 C CNN
F 1 "Barrel_Jack" H 2957 5184 50  0000 C CNN
F 2 "Connector_BarrelJack:BarrelJack_CUI_PJ-063AH_Horizontal" H 2950 4910 50  0001 C CNN
F 3 "~" H 2950 4910 50  0001 C CNN
	1    2900 4950
	1    0    0    -1  
$EndComp
Wire Wire Line
	8400 4250 8400 4350
Wire Wire Line
	7850 4350 8400 4350
Wire Wire Line
	7850 4350 7850 4450
Connection ~ 8400 4350
Wire Wire Line
	8400 4350 8400 4450
Wire Wire Line
	8900 4450 8900 4350
Wire Wire Line
	8900 4350 8400 4350
Wire Wire Line
	4400 5600 4400 5900
Wire Wire Line
	5350 1950 5350 2200
Wire Wire Line
	4400 4900 4400 4950
Wire Wire Line
	4400 4950 4350 4950
Wire Wire Line
	3200 4850 3500 4850
Wire Wire Line
	3500 4850 3500 4750
Wire Wire Line
	3500 4900 3500 4850
Connection ~ 3500 4850
Wire Wire Line
	5250 3500 5350 3500
Wire Wire Line
	5350 3500 5350 3650
Wire Wire Line
	9650 3050 9650 3000
Wire Wire Line
	9650 2700 9650 2650
Wire Wire Line
	9650 2650 9600 2650
$Comp
L power:VCC #PWR0103
U 1 1 6337565A
P 9650 2300
F 0 "#PWR0103" H 9650 2150 50  0001 C CNN
F 1 "VCC" H 9667 2473 50  0000 C CNN
F 2 "" H 9650 2300 50  0001 C CNN
F 3 "" H 9650 2300 50  0001 C CNN
	1    9650 2300
	-1   0    0    -1  
$EndComp
Wire Wire Line
	9300 2450 9300 2350
Wire Wire Line
	9300 2350 9650 2350
Wire Wire Line
	9650 2350 9650 2300
Wire Wire Line
	9950 2450 9950 2350
Wire Wire Line
	9950 2350 9650 2350
Connection ~ 9650 2350
$Comp
L power:GND #PWR0104
U 1 1 633D2048
P 5450 6050
F 0 "#PWR0104" H 5450 5800 50  0001 C CNN
F 1 "GND" H 5455 5877 50  0000 C CNN
F 2 "" H 5450 6050 50  0001 C CNN
F 3 "" H 5450 6050 50  0001 C CNN
	1    5450 6050
	1    0    0    -1  
$EndComp
Wire Wire Line
	6550 2900 6100 2900
Connection ~ 6100 2900
Wire Wire Line
	5650 2900 6100 2900
Wire Wire Line
	6100 2800 6100 2900
$Comp
L power:VCC #PWR07
U 1 1 61EB9BF4
P 6130 3855
F 0 "#PWR07" H 6130 3705 50  0001 C CNN
F 1 "VCC" H 6147 4028 50  0000 C CNN
F 2 "" H 6130 3855 50  0001 C CNN
F 3 "" H 6130 3855 50  0001 C CNN
	1    6130 3855
	1    0    0    -1  
$EndComp
Wire Wire Line
	7850 4750 7850 4900
Wire Wire Line
	8400 4750 8400 4800
Wire Wire Line
	8900 4750 8900 4850
Wire Wire Line
	7230 4900 7850 4900
Connection ~ 7850 4900
Wire Wire Line
	7850 4900 7850 4950
Wire Wire Line
	7230 4600 7450 4600
Wire Wire Line
	7450 4600 7450 4850
Wire Wire Line
	7450 4850 8900 4850
Connection ~ 8900 4850
Wire Wire Line
	8900 4850 8900 4950
Wire Wire Line
	7230 4500 7500 4500
Wire Wire Line
	7500 4500 7500 4800
Wire Wire Line
	7500 4800 8400 4800
Connection ~ 8400 4800
Wire Wire Line
	8400 4800 8400 4950
Wire Wire Line
	7230 4700 7420 4700
Wire Wire Line
	7230 4800 7430 4800
Text Label 7330 4800 0    50   ~ 0
D1
Text Label 7296 5000 0    50   ~ 0
CLK
Wire Wire Line
	3900 4700 5030 4700
Wire Wire Line
	5030 5100 4750 5100
$Comp
L MCU_Microchip_PIC16:PIC16F628A-ISO U3
U 1 1 61D92EE4
P 6130 4800
F 0 "U3" H 6130 5681 50  0000 C CNN
F 1 "PIC16F628A-ISO" H 6130 5590 50  0000 C CNN
F 2 "Package_DIP:DIP-18_W7.62mm" H 6130 4800 50  0001 C CIN
F 3 "http://ww1.microchip.com/downloads/en/DeviceDoc/40300c.pdf" H 6130 4800 50  0001 C CNN
	1    6130 4800
	1    0    0    -1  
$EndComp
Wire Wire Line
	7230 4400 7440 4400
Text Label 7325 5100 0    50   ~ 0
D2
Wire Wire Line
	7430 5100 7230 5100
Text Label 7300 4900 0    50   ~ 0
Vpp
Wire Wire Line
	4870 3500 4950 3500
Wire Wire Line
	5030 5000 4750 5000
Wire Wire Line
	4570 3500 4415 3500
Text Label 4415 3500 0    50   ~ 0
PGD
Wire Wire Line
	7250 3500 7325 3500
Wire Wire Line
	7625 3500 7795 3500
Text Label 7640 3500 0    50   ~ 0
PGC
Wire Wire Line
	6130 5500 6130 5900
$Comp
L Device:LED D4
U 1 1 620F8986
P 5450 5700
F 0 "D4" V 5489 5583 50  0000 R CNN
F 1 "SET_RIGHT" V 5398 5583 50  0000 R CNN
F 2 "LED_THT:LED_D5.0mm" H 5450 5700 50  0001 C CNN
F 3 "~" H 5450 5700 50  0001 C CNN
	1    5450 5700
	0    -1   -1   0   
$EndComp
Wire Wire Line
	4600 4800 4600 5050
Wire Wire Line
	4600 4800 5030 4800
Wire Wire Line
	4600 5825 4600 5900
Connection ~ 4600 5900
Wire Wire Line
	4600 5900 5450 5900
Wire Wire Line
	4600 5350 4600 5525
Wire Wire Line
	4675 4900 5030 4900
Wire Wire Line
	4675 4900 4675 5500
Wire Wire Line
	5450 5500 5450 5550
Wire Wire Line
	4675 5500 4925 5500
Wire Wire Line
	5225 5500 5450 5500
Wire Wire Line
	5450 5850 5450 5900
Connection ~ 5450 5900
Wire Wire Line
	5450 5900 6130 5900
Wire Wire Line
	4475 2400 4300 2400
Wire Wire Line
	4775 2400 4950 2400
$Comp
L Device:R R5
U 1 1 62946F24
P 4625 2500
F 0 "R5" V 4600 2350 39  0000 C CNN
F 1 "330" V 4625 2500 39  0000 C CNN
F 2 "Resistor_THT:R_Axial_DIN0309_L9.0mm_D3.2mm_P12.70mm_Horizontal" V 4555 2500 50  0001 C CNN
F 3 "~" H 4625 2500 50  0001 C CNN
	1    4625 2500
	0    -1   1    0   
$EndComp
Wire Wire Line
	4475 2500 4300 2500
Wire Wire Line
	4775 2500 4950 2500
$Comp
L Device:R R6
U 1 1 62956A1B
P 4625 2600
F 0 "R6" V 4600 2450 39  0000 C CNN
F 1 "330" V 4625 2600 39  0000 C CNN
F 2 "Resistor_THT:R_Axial_DIN0309_L9.0mm_D3.2mm_P12.70mm_Horizontal" V 4555 2600 50  0001 C CNN
F 3 "~" H 4625 2600 50  0001 C CNN
	1    4625 2600
	0    -1   1    0   
$EndComp
$Comp
L Device:R R7
U 1 1 62956AF8
P 4625 2700
F 0 "R7" V 4600 2550 39  0000 C CNN
F 1 "330" V 4625 2700 39  0000 C CNN
F 2 "Resistor_THT:R_Axial_DIN0309_L9.0mm_D3.2mm_P12.70mm_Horizontal" V 4555 2700 50  0001 C CNN
F 3 "~" H 4625 2700 50  0001 C CNN
	1    4625 2700
	0    -1   1    0   
$EndComp
$Comp
L Device:R R8
U 1 1 62956CBA
P 4625 2800
F 0 "R8" V 4600 2650 39  0000 C CNN
F 1 "330" V 4625 2800 39  0000 C CNN
F 2 "Resistor_THT:R_Axial_DIN0309_L9.0mm_D3.2mm_P12.70mm_Horizontal" V 4555 2800 50  0001 C CNN
F 3 "~" H 4625 2800 50  0001 C CNN
	1    4625 2800
	0    -1   1    0   
$EndComp
$Comp
L Device:R R9
U 1 1 62956EC0
P 4625 2900
F 0 "R9" V 4600 2750 39  0000 C CNN
F 1 "330" V 4625 2900 39  0000 C CNN
F 2 "Resistor_THT:R_Axial_DIN0309_L9.0mm_D3.2mm_P12.70mm_Horizontal" V 4555 2900 50  0001 C CNN
F 3 "~" H 4625 2900 50  0001 C CNN
	1    4625 2900
	0    -1   1    0   
$EndComp
$Comp
L Device:R R10
U 1 1 629570E5
P 4625 3000
F 0 "R10" V 4600 2825 39  0000 C CNN
F 1 "330" V 4625 3000 39  0000 C CNN
F 2 "Resistor_THT:R_Axial_DIN0309_L9.0mm_D3.2mm_P12.70mm_Horizontal" V 4555 3000 50  0001 C CNN
F 3 "~" H 4625 3000 50  0001 C CNN
	1    4625 3000
	0    -1   1    0   
$EndComp
$Comp
L Device:R R15
U 1 1 62957400
P 4625 3100
F 0 "R15" V 4600 2925 39  0000 C CNN
F 1 "330" V 4625 3100 39  0000 C CNN
F 2 "Resistor_THT:R_Axial_DIN0309_L9.0mm_D3.2mm_P12.70mm_Horizontal" V 4555 3100 50  0001 C CNN
F 3 "~" H 4625 3100 50  0001 C CNN
	1    4625 3100
	0    -1   1    0   
$EndComp
Wire Wire Line
	4475 2600 4300 2600
Wire Wire Line
	4475 2700 4300 2700
Wire Wire Line
	4475 2800 4300 2800
Wire Wire Line
	4475 2900 4300 2900
Wire Wire Line
	4475 3000 4300 3000
Wire Wire Line
	4475 3100 4300 3100
Wire Wire Line
	4950 3100 4775 3100
Wire Wire Line
	4775 3000 4950 3000
Wire Wire Line
	4950 2900 4775 2900
Wire Wire Line
	4950 2600 4775 2600
Wire Wire Line
	4775 2700 4950 2700
Wire Wire Line
	4950 2800 4775 2800
$Comp
L Device:R R16
U 1 1 62A028AA
P 7575 2400
F 0 "R16" V 7550 2225 39  0000 C CNN
F 1 "330" V 7575 2400 39  0000 C CNN
F 2 "Resistor_THT:R_Axial_DIN0309_L9.0mm_D3.2mm_P12.70mm_Horizontal" V 7505 2400 50  0001 C CNN
F 3 "~" H 7575 2400 50  0001 C CNN
	1    7575 2400
	0    -1   1    0   
$EndComp
Wire Wire Line
	7425 2400 7250 2400
Wire Wire Line
	7725 2400 7900 2400
$Comp
L Device:R R17
U 1 1 62A028B6
P 7575 2500
F 0 "R17" V 7550 2325 39  0000 C CNN
F 1 "330" V 7575 2500 39  0000 C CNN
F 2 "Resistor_THT:R_Axial_DIN0309_L9.0mm_D3.2mm_P12.70mm_Horizontal" V 7505 2500 50  0001 C CNN
F 3 "~" H 7575 2500 50  0001 C CNN
	1    7575 2500
	0    -1   1    0   
$EndComp
Wire Wire Line
	7425 2500 7250 2500
Wire Wire Line
	7725 2500 7900 2500
$Comp
L Device:R R18
U 1 1 62A028C2
P 7575 2600
F 0 "R18" V 7550 2425 39  0000 C CNN
F 1 "330" V 7575 2600 39  0000 C CNN
F 2 "Resistor_THT:R_Axial_DIN0309_L9.0mm_D3.2mm_P12.70mm_Horizontal" V 7505 2600 50  0001 C CNN
F 3 "~" H 7575 2600 50  0001 C CNN
	1    7575 2600
	0    -1   1    0   
$EndComp
$Comp
L Device:R R19
U 1 1 62A028CC
P 7575 2700
F 0 "R19" V 7550 2525 39  0000 C CNN
F 1 "330" V 7575 2700 39  0000 C CNN
F 2 "Resistor_THT:R_Axial_DIN0309_L9.0mm_D3.2mm_P12.70mm_Horizontal" V 7505 2700 50  0001 C CNN
F 3 "~" H 7575 2700 50  0001 C CNN
	1    7575 2700
	0    -1   1    0   
$EndComp
$Comp
L Device:R R20
U 1 1 62A028D6
P 7575 2800
F 0 "R20" V 7550 2625 39  0000 C CNN
F 1 "330" V 7575 2800 39  0000 C CNN
F 2 "Resistor_THT:R_Axial_DIN0309_L9.0mm_D3.2mm_P12.70mm_Horizontal" V 7505 2800 50  0001 C CNN
F 3 "~" H 7575 2800 50  0001 C CNN
	1    7575 2800
	0    -1   1    0   
$EndComp
$Comp
L Device:R R21
U 1 1 62A028E0
P 7575 2900
F 0 "R21" V 7550 2725 39  0000 C CNN
F 1 "330" V 7575 2900 39  0000 C CNN
F 2 "Resistor_THT:R_Axial_DIN0309_L9.0mm_D3.2mm_P12.70mm_Horizontal" V 7505 2900 50  0001 C CNN
F 3 "~" H 7575 2900 50  0001 C CNN
	1    7575 2900
	0    -1   1    0   
$EndComp
$Comp
L Device:R R27
U 1 1 62A028EA
P 7575 3000
F 0 "R27" V 7550 2825 39  0000 C CNN
F 1 "330" V 7575 3000 39  0000 C CNN
F 2 "Resistor_THT:R_Axial_DIN0309_L9.0mm_D3.2mm_P12.70mm_Horizontal" V 7505 3000 50  0001 C CNN
F 3 "~" H 7575 3000 50  0001 C CNN
	1    7575 3000
	0    -1   1    0   
$EndComp
$Comp
L Device:R R28
U 1 1 62A028F4
P 7575 3100
F 0 "R28" V 7550 2925 39  0000 C CNN
F 1 "330" V 7575 3100 39  0000 C CNN
F 2 "Resistor_THT:R_Axial_DIN0309_L9.0mm_D3.2mm_P12.70mm_Horizontal" V 7505 3100 50  0001 C CNN
F 3 "~" H 7575 3100 50  0001 C CNN
	1    7575 3100
	0    -1   1    0   
$EndComp
Wire Wire Line
	7425 2600 7250 2600
Wire Wire Line
	7425 2700 7250 2700
Wire Wire Line
	7425 2800 7250 2800
Wire Wire Line
	7425 2900 7250 2900
Wire Wire Line
	7425 3000 7250 3000
Wire Wire Line
	7425 3100 7250 3100
Wire Wire Line
	7900 3100 7725 3100
Wire Wire Line
	7725 3000 7900 3000
Wire Wire Line
	7900 2900 7725 2900
Wire Wire Line
	7900 2600 7725 2600
Wire Wire Line
	7725 2700 7900 2700
Wire Wire Line
	7900 2800 7725 2800
Wire Wire Line
	3200 5050 3325 5050
Wire Wire Line
	5450 5900 5450 6050
Wire Wire Line
	6850 1950 6850 2200
Wire Wire Line
	6850 3600 6850 3500
Wire Wire Line
	6950 3500 6850 3500
Connection ~ 6850 3500
Wire Wire Line
	6850 3500 6850 3300
Wire Wire Line
	8400 5450 8400 5400
Wire Wire Line
	3750 3850 3750 3650
Wire Wire Line
	5350 3300 5350 3500
Connection ~ 5350 3500
Wire Wire Line
	6130 3855 6130 4100
Wire Wire Line
	3500 5200 3500 5255
Wire Wire Line
	3325 5050 3325 5255
Wire Wire Line
	3325 5255 3500 5255
Connection ~ 3500 5255
Wire Wire Line
	3500 5255 3500 5300
$Comp
L Device:LED D3
U 1 1 61E6BE5F
P 7100 3500
F 0 "D3" H 7093 3700 50  0000 C CNN
F 1 "RIGHT_SERVE" H 7093 3617 39  0000 C CNN
F 2 "LED_THT:LED_D5.0mm" H 7100 3500 50  0001 C CNN
F 3 "~" H 7100 3500 50  0001 C CNN
	1    7100 3500
	1    0    0    -1  
$EndComp
$Comp
L Connector:Conn_01x06_Male J2
U 1 1 61E4F1F5
P 3225 4050
F 0 "J2" H 3305 3660 50  0000 R CNN
F 1 "ICSP Header" H 3505 4370 50  0000 R CNN
F 2 "Connector_PinHeader_2.54mm:PinHeader_1x06_P2.54mm_Horizontal" H 3225 4050 50  0001 C CNN
F 3 "~" H 3225 4050 50  0001 C CNN
	1    3225 4050
	1    0    0    1   
$EndComp
Wire Wire Line
	3425 3750 3510 3750
Wire Wire Line
	3425 3850 3750 3850
Wire Wire Line
	3425 3950 3750 3950
Wire Wire Line
	3425 4050 3700 4050
Wire Wire Line
	3425 4150 3700 4150
$Comp
L Device:R R29
U 1 1 61F9FC56
P 3985 3660
F 0 "R29" H 4055 3706 50  0000 L CNN
F 1 "10k" H 4055 3615 50  0000 L CNN
F 2 "Resistor_THT:R_Axial_DIN0309_L9.0mm_D3.2mm_P12.70mm_Horizontal" V 3915 3660 50  0001 C CNN
F 3 "~" H 3985 3660 50  0001 C CNN
	1    3985 3660
	1    0    0    -1  
$EndComp
Text Notes 3950 3980 0    50   ~ 0
Pull-up for the ICSP\n
Wire Wire Line
	3985 3850 3750 3850
Connection ~ 3750 3850
Wire Wire Line
	3985 3810 3985 3850
Wire Wire Line
	3985 3510 3985 3425
Wire Wire Line
	3985 3425 3510 3425
Wire Wire Line
	3510 3425 3510 3750
Connection ~ 3510 3750
Wire Wire Line
	3510 3750 3700 3750
Wire Wire Line
	4400 5900 4600 5900
$EndSCHEMATC
